Importer Log Report
Project : Prototype v0.1.PrjPcb

Section : Import Document - C:\Users\ChenCentrality\Projects\BLE beacon hardware\Prototype v0.1\2450FM07A0029T.lia
    Section : PCB Library - 2450FM07A0029T.PcbLib
        Section : Load Messages
            Warning - 1 : Skipping Token 2450FM07A0029T On Line 152
            Warning - 1 : Skipping Token attachedSymbol On Line 209
        EndSection
    EndSection

    Section : SCH Library - 2450FM07A0029T.SchLib
        Section : Parsing Messages
            Warning - 1 : Skipping Token padStyleDef On Line 9
            Warning - 1 : Skipping Token padStyleDef On Line 21
            Warning - 1 : Skipping Token multiLayer On Line 96
            Warning - 1 : Skipping Token layerContents On Line 101
            Warning - 1 : Skipping Token layerContents On Line 107
            Warning - 1 : Skipping Token layerContents On Line 127
            Warning - 1 : Skipping Token layerContents On Line 147
            Warning - 1 : Skipping Token isVisible On Line 181
            Warning - 1 : Skipping Token isVisible On Line 182
        EndSection
    EndSection
EndSection
