Importer Log Report
Project : Prototype v0.1.PrjPcb

Section : Import Document - C:\Users\ChenCentrality\Projects\BLE beacon hardware\BMI160.lia
    Section : PCB Library - BMI160.PcbLib
        Section : Load Messages
            Warning - 1 : Skipping Token BMI160 On Line 127
            Warning - 1 : Skipping Token attachedSymbol On Line 294
        EndSection
    EndSection

    Section : SCH Library - BMI160.SchLib
        Section : Parsing Messages
            Warning - 1 : Skipping Token padStyleDef On Line 9
            Warning - 1 : Skipping Token multiLayer On Line 84
            Warning - 1 : Skipping Token layerContents On Line 100
            Warning - 1 : Skipping Token layerContents On Line 108
            Warning - 1 : Skipping Token layerContents On Line 114
        EndSection
    EndSection
EndSection
